{
  "project_info": {
    "project_number": "80181195874",
    "project_id": "enjeal-nys-food",
    "storage_bucket": "enjeal-nys-food.appspot.com"
  },
  "client": [
    {
      "client_info": {
        "mobilesdk_app_id": "1:80181195874:android:5dfa1738ac79adb5ea0d3b",
        "android_client_info": {
          "package_name": "com.enjeal_nys_food"
        }
      },
      "oauth_client": [
        {
          "client_id": "80181195874-sb6gaul9vgo2dnb11u8s1p93lk5too94.apps.googleusercontent.com",
          "client_type": 1,
          "android_info": {
            "package_name": "com.enjeal_nys_food",
            "certificate_hash": "ae464102584865fa591b401e3dd2d093c8465153"
          }
        },
        {
          "client_id": "80181195874-o13vhb6dee9ean6oolieiqkee737o0ac.apps.googleusercontent.com",
          "client_type": 3
        }
      ],
      "api_key": [
        {
          "current_key": "AIzaSyAe2uhVqFNf4i71SmfA9czKP8Qt5hX4phQ"
        }
      ],
      "services": {
        "appinvite_service": {
          "other_platform_oauth_client": [
            {
              "client_id": "80181195874-o13vhb6dee9ean6oolieiqkee737o0ac.apps.googleusercontent.com",
              "client_type": 3
            }
          ]
        }
      }
    }
  ],
  "configuration_version": "1"
}